{
  "project_info": {
    "project_number": "455793870114",
    "firebase_url": "https://solfa-gaming.firebaseio.com",
    "project_id": "solfa-gaming",
    "storage_bucket": "solfa-gaming.appspot.com"
  },
  "client": [
    {
      "client_info": {
        "mobilesdk_app_id": "1:455793870114:android:26d2cfe2db249d5c",
        "android_client_info": {
          "package_name": "id.solfa.solfagaming"
        }
      },
      "oauth_client": [
        {
          "client_id": "455793870114-sirc0sagllkst2ihu1mvk4k30sbdo6ob.apps.googleusercontent.com",
          "client_type": 1,
          "android_info": {
            "package_name": "id.solfa.solfagaming",
            "certificate_hash": "86c90295ef13afb087f1bf49ae73b48fff5bd1d9"
          }
        },
        {
          "client_id": "455793870114-ajcfuvm6lf81etppqo5fk0d76es21gqd.apps.googleusercontent.com",
          "client_type": 3
        }
      ],
      "api_key": [
        {
          "current_key": "AIzaSyCGG27py9djFwshPiJW0IFoMZHZ4BNdA5o"
        }
      ],
      "services": {
        "analytics_service": {
          "status": 1
        },
        "appinvite_service": {
          "status": 2,
          "other_platform_oauth_client": [
            {
              "client_id": "455793870114-ajcfuvm6lf81etppqo5fk0d76es21gqd.apps.googleusercontent.com",
              "client_type": 3
            }
          ]
        },
        "ads_service": {
          "status": 2
        }
      }
    }
  ],
  "configuration_version": "1"
}